Ultimate Consequences - Bolivia Studies Journal Data Page
…
The database includes 626 to 644 of these deaths, including those of 595 named individuals.

Note: Of the 644 deaths recorded in the database, 18 are “unconfirmed” deaths corresponding to cases where an uncertain number of people were killed (e.g., if “three to five” people were reported killed, two unnamed individuals are included in the database as unconfirmed deaths). There are 13 recorded instances of non-conflict-related accidents and 3 non-conflict-related natural deaths associated with protest events; and 5 recorded instances of deaths from medical causes, where protest or repression may have impeded medical care (“collateral”). For the remainder of this article, we refer to the 605 deaths not excluded for any of these reasons as “confirmed deaths.”

Partisan Deaths

From 1982 until 2006, there were no deadly partisan street clashes in Bolivia, but they emerged dramatically during the stalemate.

Note that the 2001 Santa Rosa Massacre was not a street clash, but did target its victims by partisan affiliation.

de.confirmed %>% filter(protest_domain=="Partisan Politics") %>%
                 filter(pol_assassination=="No") %>%
                 select(event_title, year, dec_firstname, dec_surnames, cause_death, intentionality)

# A tibble: 63 × 6
   event_title                 year dec_firstname dec_surnames         cause_death intentionality
   <chr>                      <int> <chr>         <chr>                <chr>       <chr>         
 1 Santa Rosa Massacre         2001 Sandra        Vásquez              Gunshot     Direct        
 2 Santa Rosa Massacre         2001 Ernesto       Vásquez Mosqueira    Gunshot     Direct        
 3 Santa Rosa Massacre         2001 Ernesto       Vásquez              Gunshot     Direct        
 4 Santa Rosa Massacre         2001 Esmir         Vásquez Mosqueira    Gunshot     Direct        
 5 11 de Enero clashes         2007 Christian     Urresti              Strangled   Direct        
 6 11 de Enero clashes         2007 Juan          Ticacolque Machaca   Gunshot     Direct        
 7 11 de Enero clashes         2007 Luciano       Colque               Beating     Direct        
 8 Sucre constitution protest  2007 Gonzalo       Durán Carazani       Gunshot     Direct        
 9 Sucre constitution protest  2007 José Luis     Luis Cardozo Lazcano Gunshot     Direct        
10 Sucre constitution protest  2007 Juan Carlos   Serrado Murillo      Impact      Direct        
# ℹ 53 more rows
…
## Gas War calculations
def.gaswar.sp <- def %>% filter(protest_campaign=="2003 Gas War") %>%
                         filter(state_perpetrator=="Yes")  # table of state perpetrator deaths in the 2003 Gas War
n_gaswar.sp <- nrow(def.gaswar.sp) # count them

def.gaswar.sp %>% select(year, month, day, dec_firstname, dec_surnames) #output a table with dates and names

# A tibble: 59 × 5
    year month   day dec_firstname                         dec_surnames                
   <int> <int> <int> <chr>                                 <chr>                       
 1  2003     9    20 Demetrio (Primitivo)                  Coraca Castro               
 2  2003     9    20 Juan                                  Cosme Apaza                 
 3  2003     9    20 Simael Marcos (Ismael, Gilmer Marcos) Quispe Quispe (Quispe Apaza)
 4  2003     9    20 Marlene Nancy                         Rojas Ramos                 
 5  2003    10     9 José Luis                             Atahuichi Ramos             
 6  2003    10     9 Ramiro                                Vargas Astilla              
 7  2003    10    11 Walter                                Huanca Choque               
 8  2003    10    11 Alex                                  Llusco Mollericona          
 9  2003    10    11 Raul                                  Marca Ruiz                  
10  2003    10    11 José Miguel                           Pérez Cortez                
# ℹ 49 more rows
…
